%YAML 1.1
%TAG !u! tag:unity3d.com,2011:
--- !u!114 &11400000
MonoBehaviour:
  m_ObjectHideFlags: 0
  m_CorrespondingSourceObject: {fileID: 0}
  m_PrefabInstance: {fileID: 0}
  m_PrefabAsset: {fileID: 0}
  m_GameObject: {fileID: 0}
  m_Enabled: 1
  m_EditorHideFlags: 0
  m_Script: {fileID: 11500000, guid: 08043e1938d5f7c47b961605a7c0978b, type: 3}
  m_Name: A9D86CA6-5C1B-4FE7-80F1-E83E8D651814
  m_EditorClassIdentifier: 
  objectName: Juego
  id: 1157012013
  guid: A9D86CA6-5C1B-4FE7-80F1-E83E8D651814
